<?xml version="1.0" encoding="utf-8"?>
<!-- Generator: Adobe Illustrator 18.0.0, SVG Export Plug-In . SVG Version: 6.00 Build 0)  -->
<!DOCTYPE svg PUBLIC "-//W3C//DTD SVG 1.1//EN" "http://www.w3.org/Graphics/SVG/1.1/DTD/svg11.dtd">
<svg version="1.1" id="Icons" xmlns="http://www.w3.org/2000/svg" xmlns:xlink="http://www.w3.org/1999/xlink" x="0px" y="0px"
	 viewBox="0 0 60 55" enable-background="new 0 0 60 55" xml:space="preserve">
<path fill="#F68236" d="M59,3h-8.8c-0.5,0-0.9,0.3-1,0.8l-3.1,12.8l-7.8-9.4c-0.2-0.2-0.4-0.3-0.7-0.4c-0.3,0-0.6,0.1-0.8,0.3
	l-2,1.9H23c-0.6,0-1,0.4-1,1v7h-6.4L8.2,0.6C8.1,0.3,7.9,0.2,7.6,0.1C7.4,0,7.1,0,6.9,0.1l-6.3,3C0.1,3.3-0.1,3.9,0.1,4.4L5.5,17H1
	c-0.3,0-0.6,0.2-0.8,0.4C0,17.7,0,18,0,18.3l7.6,24c0.1,0.4,0.5,0.7,1,0.7h31.1l-0.5,2H12c-2.8,0-5,2.2-5,5c0,2.8,2.2,5,5,5
	s5-2.2,5-5c0-1.1-0.4-2.2-1-3H35c-0.6,0.8-1,1.9-1,3c0,2.8,2.2,5,5,5c2.8,0,5-2.2,5-5c0-2-1.2-3.7-2.9-4.5l0.8-3.1
	c0-0.1,0.1-0.1,0.1-0.2l5.8-24v0L51,5h8c0.6,0,1-0.4,1-1C60,3.4,59.6,3,59,3z M7.7,17L2.3,4.5l4.5-2.1L13.4,17H7.7z M24,17v-6h8.8
	l-6.2,6H24z M29.5,17l6.5-6.3c0,0,0,0,0,0l1.5-1.5l6.4,7.7H29.5z"/>
</svg>
