<?xml version="1.0" encoding="utf-8"?>
<!-- Generator: Adobe Illustrator 18.0.0, SVG Export Plug-In . SVG Version: 6.00 Build 0)  -->
<!DOCTYPE svg PUBLIC "-//W3C//DTD SVG 1.1//EN" "http://www.w3.org/Graphics/SVG/1.1/DTD/svg11.dtd">
<svg version="1.1" id="Icons" xmlns="http://www.w3.org/2000/svg" xmlns:xlink="http://www.w3.org/1999/xlink" x="0px" y="0px"
	 viewBox="0 0 60 42" enable-background="new 0 0 60 42" xml:space="preserve">
<g>
	<path fill="#F68236" d="M60,1c0-0.6-0.4-1-1-1H27c-0.6,0-1,0.4-1,1v29h-2V7c0-0.6-0.4-1-1-1H13c-0.4,0-0.7,0.2-0.9,0.5l-5.9,9.9
		l-5.9,4.9C0.1,21.4,0,21.7,0,22v6v3v6c0,0.6,0.4,1,1,1h3.3C4.1,37.4,4,36.7,4,36H2v-4h3.1c1.4-2.4,4-4,6.9-4s5.5,1.6,6.9,4H23h4
		h14.1c1.4-2.4,4-4,6.9-4s5.5,1.6,6.9,4H58v4h-2c0,0.7-0.1,1.4-0.3,2H59c0.6,0,1-0.4,1-1v-5.5c0-0.1,0-0.2-0.1-0.2
		c0-0.1,0.1-0.2,0.1-0.2V1z M18,12h-1.4l-3.7,7.4C12.7,19.8,12.4,20,12,20c-0.2,0-0.3,0-0.4-0.1c-0.5-0.2-0.7-0.8-0.4-1.3l4-8
		c0.2-0.3,0.5-0.6,0.9-0.6h2c0.6,0,1,0.4,1,1C19,11.6,18.6,12,18,12z"/>
	<path fill="#F68236" d="M20,36c0,0.7-0.1,1.4-0.3,2h20.5c-0.2-0.6-0.3-1.3-0.3-2H20z"/>
	<path fill="#F68236" d="M12,30c-3.3,0-6,2.7-6,6c0,3.3,2.7,6,6,6s6-2.7,6-6C18,32.7,15.3,30,12,30z"/>
	<path fill="#F68236" d="M48,30c-3.3,0-6,2.7-6,6c0,3.3,2.7,6,6,6s6-2.7,6-6C54,32.7,51.3,30,48,30z"/>
</g>
</svg>
