<?xml version="1.0" encoding="utf-8"?>
<!-- Generator: Adobe Illustrator 18.0.0, SVG Export Plug-In . SVG Version: 6.00 Build 0)  -->
<!DOCTYPE svg PUBLIC "-//W3C//DTD SVG 1.1//EN" "http://www.w3.org/Graphics/SVG/1.1/DTD/svg11.dtd">
<svg version="1.1" id="Icons" xmlns="http://www.w3.org/2000/svg" xmlns:xlink="http://www.w3.org/1999/xlink" x="0px" y="0px"
	 viewBox="0 0 60 45" enable-background="new 0 0 60 45" xml:space="preserve">
<g>
	<path fill="#FCFCFC" d="M26,4c1.1,0,2-0.9,2-2s-0.9-2-2-2C10.2,0,0,12.2,0,31c0,7.7,6.3,14,14,14s14-6.3,14-14s-6.3-14-14-14
		c-3.2,0-6.2,1.1-8.6,2.9C8.8,8.4,17.6,4,26,4z"/>
	<path fill="#FCFCFC" d="M46,17c-3.2,0-6.2,1.1-8.6,2.9C40.8,8.4,49.6,4,58,4c1.1,0,2-0.9,2-2s-0.9-2-2-2C42.2,0,32,12.2,32,31
		c0,7.7,6.3,14,14,14s14-6.3,14-14S53.7,17,46,17z"/>
</g>
</svg>
