<?xml version="1.0" encoding="utf-8"?>
<!-- Generator: Adobe Illustrator 18.0.0, SVG Export Plug-In . SVG Version: 6.00 Build 0)  -->
<!DOCTYPE svg PUBLIC "-//W3C//DTD SVG 1.1//EN" "http://www.w3.org/Graphics/SVG/1.1/DTD/svg11.dtd">
<svg version="1.1" id="Layer_1" xmlns="http://www.w3.org/2000/svg" xmlns:xlink="http://www.w3.org/1999/xlink" x="0px" y="0px"
	 viewBox="0 0 60 71.5" enable-background="new 0 0 60 71.5" xml:space="preserve">
<path fill="#F58236" d="M27.6,27.7c-1.9,0-2.6,0.1-4.4,0.5c-2.2-3.8-4.7-5.5-9.3-4.5c2.1,1.2,1.9,2,2.2,4.4
	c-4.7,2.8-9.2,10.2-9.9,15.4H1.7v8.8h6.3c3.2,7,10.7,10.5,19.6,10.5C39.4,62.9,49,55,49,45.2C49,35.5,39.4,27.7,27.6,27.7z"/>
<g>
	<path fill="none" stroke="#2D2C2C" stroke-width="2" stroke-linecap="round" stroke-linejoin="round" stroke-miterlimit="10" d="
		M29,30.5c4.5-0.3,9.3,1.3,13,4"/>
	<path fill="none" stroke="#2D2C2C" stroke-width="2" stroke-linecap="round" stroke-miterlimit="10" d="M59,39.5c0,2.8-2.2,5-5,5"
		/>
	<path fill="none" stroke="#2D2C2C" stroke-width="2" stroke-linecap="round" stroke-linejoin="round" stroke-miterlimit="10" d="
		M30,24.5c-2.1,0-4.2,0-6.2,0.5c-2.4-4.3-7.8-5.8-12.1-3.3c2.3,1.3,3.9,3.6,4.3,6.4c-5.3,3.2-9.2,8.4-10,14.4H1v10h7
		c3.6,8,11.9,12,22,12c13.2,0,24-8.9,24-20.1C54,33.3,43.2,24.5,30,24.5z"/>
	
		<line fill="none" stroke="#2D2C2C" stroke-width="2" stroke-linecap="round" stroke-linejoin="round" stroke-miterlimit="10" x1="21" y1="63.3" x2="21" y2="70.5"/>
	
		<line fill="none" stroke="#2D2C2C" stroke-width="2" stroke-linecap="round" stroke-linejoin="round" stroke-miterlimit="10" x1="39" y1="63.1" x2="39" y2="70.5"/>
	
		<circle fill="none" stroke="#2D2C2C" stroke-width="2" stroke-linecap="round" stroke-linejoin="round" stroke-miterlimit="10" cx="16" cy="40.5" r="2"/>
</g>
<line fill="none" stroke="#010101" stroke-width="2" stroke-linecap="round" stroke-linejoin="round" stroke-miterlimit="10" x1="40.5" y1="6.8" x2="40.5" y2="15.5"/>
<circle fill="none" stroke="#2D2C2C" stroke-width="2" stroke-linecap="round" stroke-linejoin="round" stroke-miterlimit="10" cx="40.5" cy="11.2" r="10.2"/>
</svg>
