<?xml version="1.0" encoding="utf-8"?>
<!-- Generator: Adobe Illustrator 18.0.0, SVG Export Plug-In . SVG Version: 6.00 Build 0)  -->
<!DOCTYPE svg PUBLIC "-//W3C//DTD SVG 1.1//EN" "http://www.w3.org/Graphics/SVG/1.1/DTD/svg11.dtd">
<svg version="1.1" id="Layer_1" xmlns="http://www.w3.org/2000/svg" xmlns:xlink="http://www.w3.org/1999/xlink" x="0px" y="0px"
	 viewBox="0 0 65.5 62.8" enable-background="new 0 0 65.5 62.8" xml:space="preserve">
<path fill="#F68236" d="M44.2,56.8c0,3.3-2.7,6-6,6L6,54.2c-3.7-0.8-6-2.7-6-6v-34c0-3.3,2.7-6,6-6l32.2,8.7c3.8,0.8,6,2.7,6,6V56.8
	z"/>
<g>
	<path fill="none" stroke="#2C2C2C" stroke-width="2" stroke-linecap="round" stroke-linejoin="round" stroke-miterlimit="10" d="
		M7.3,4l35.4,9.4c3.2,0.9,5.8,4.2,5.8,7.5v33.4c0,3.3-2.6,5.4-5.8,4.6l-30.3-7.3c-3.2-0.8-5.8-4.1-5.8-7.4V7c0-3.3,2.7-6,6-6h46
		c3.3,0,6,2.7,6,6v32c0,3.3-2.7,6-6,6h-10"/>
	
		<line fill="none" stroke="#2C2C2C" stroke-width="2" stroke-linecap="round" stroke-linejoin="round" stroke-miterlimit="10" x1="26.2" y1="9" x2="54.4" y2="9"/>
	
		<circle fill="none" stroke="#2C2C2C" stroke-width="2" stroke-linecap="round" stroke-linejoin="round" stroke-miterlimit="10" cx="39.5" cy="35" r="5"/>
	
		<line fill="none" stroke="#2C2C2C" stroke-width="2" stroke-linecap="round" stroke-linejoin="round" stroke-miterlimit="10" x1="48.5" y1="23" x2="54.4" y2="23"/>
</g>
</svg>
