<?xml version="1.0" encoding="utf-8"?>
<!-- Generator: Adobe Illustrator 18.0.0, SVG Export Plug-In . SVG Version: 6.00 Build 0)  -->
<!DOCTYPE svg PUBLIC "-//W3C//DTD SVG 1.1//EN" "http://www.w3.org/Graphics/SVG/1.1/DTD/svg11.dtd">
<svg version="1.1" id="Icons" xmlns="http://www.w3.org/2000/svg" xmlns:xlink="http://www.w3.org/1999/xlink" x="0px" y="0px"
	 viewBox="0 0 60 60" enable-background="new 0 0 60 60" xml:space="preserve">
<path fill="#F68236" d="M60,5.7c0-0.3,0-0.5,0-0.7c0-0.6-0.4-1-1-1h-5.3c0-1,0-2,0-3c0-0.6-0.4-1-1-1H7.3c-0.6,0-1,0.4-1,1
	c0,1,0,2,0,3H1C0.5,4,0,4.4,0,5c0,0.3,0,0.6,0,1C0,10.3-0.2,19.1,4.5,23.9c1.9,1.9,4.4,3,7.4,3.1c2.7,4,5.9,5.9,8.7,7.6
	c3.5,2.1,5.8,3.5,5.8,8C26.3,51.3,23,53,17,53c-0.6,0-1,0.4-1,1v5c0,0.6,0.4,1,1,1h26c0.6,0,1-0.4,1-1v-5c0-0.6-0.4-1-1-1
	c-6.5,0-9.5-3.3-9.5-10.4c0-4.6,2.3-6,5.9-8.1c2.8-1.7,6-3.6,8.7-7.5c2.9-0.1,5.4-1.1,7.3-3.1C60.2,18.9,60.1,9.3,60,5.7z M6,22.5
	C1.8,18.3,2,10,2,6c0,0,0,0,0,0h4.5c0.4,8.9,2.1,14.8,4.2,18.9C8.8,24.6,7.2,23.8,6,22.5z M38.3,13.4l-4.7,3.8l1.9,5.7
	c0.1,0.2,0,0.4-0.2,0.6c-0.1,0.1-0.2,0.1-0.3,0.1c-0.1,0-0.2,0-0.3-0.1L30,19.6l-4.7,3.7c-0.2,0.1-0.4,0.1-0.6,0
	c-0.2-0.1-0.3-0.4-0.2-0.6l1.9-5.7l-4.7-3.8c-0.2-0.1-0.2-0.4-0.2-0.6c0.1-0.2,0.3-0.3,0.5-0.3h5.7l1.8-4.1c0.1-0.2,0.3-0.3,0.5-0.3
	c0.2,0,0.4,0.1,0.5,0.3l1.9,4.1H38c0.2,0,0.4,0.1,0.5,0.3C38.6,13,38.5,13.3,38.3,13.4z M53.9,22.5c-1.3,1.3-2.8,2-4.6,2.4
	c2.2-4.1,3.9-10,4.3-18.9H58C58.1,9.5,58.1,18.2,53.9,22.5z"/>
</svg>
