<?xml version="1.0" encoding="utf-8"?>
<!-- Generator: Adobe Illustrator 18.0.0, SVG Export Plug-In . SVG Version: 6.00 Build 0)  -->
<!DOCTYPE svg PUBLIC "-//W3C//DTD SVG 1.1//EN" "http://www.w3.org/Graphics/SVG/1.1/DTD/svg11.dtd">
<svg version="1.1" id="Layer_1" xmlns="http://www.w3.org/2000/svg" xmlns:xlink="http://www.w3.org/1999/xlink" x="0px" y="0px"
	 viewBox="0 0 58 58" enable-background="new 0 0 58 58" xml:space="preserve">
<path fill="#F68236" d="M37.3,21.7H23.2c-7.6,0-9.9,6.4-9.9,12c0,5.6,4,10.9,4,10.9s0-1.4,0-4.9c0-2.5,1-4,5.9-4h14.1V42L51,28.1
	L37.3,14.3V21.7z"/>
<g>
	
		<circle fill="none" stroke="#2C2C2C" stroke-width="2" stroke-linecap="round" stroke-linejoin="round" stroke-miterlimit="10" cx="29" cy="29" r="28"/>
	<path fill="none" stroke="#2C2C2C" stroke-width="2" stroke-linecap="round" stroke-linejoin="round" stroke-miterlimit="10" d="
		M35,18H20.9c-7.6,0-9.9,6.4-9.9,12c0,5.6,4,10.9,4,10.9s0-1.4,0-4.9c0-2.5,1-4,5.9-4H35v6.3l13.7-13.9L35,10.6V18z"/>
</g>
</svg>
