<?xml version="1.0" encoding="utf-8"?>
<!-- Generator: Adobe Illustrator 18.0.0, SVG Export Plug-In . SVG Version: 6.00 Build 0)  -->
<!DOCTYPE svg PUBLIC "-//W3C//DTD SVG 1.1//EN" "http://www.w3.org/Graphics/SVG/1.1/DTD/svg11.dtd">
<svg version="1.1" id="Layer_1" xmlns="http://www.w3.org/2000/svg" xmlns:xlink="http://www.w3.org/1999/xlink" x="0px" y="0px"
	 viewBox="0 0 60 58.1" enable-background="new 0 0 60 58.1" xml:space="preserve">
<path fill="#F68236" d="M31.2,15.4c0,0,1.2-8.8,4-10.9s6.7-0.9,7,2C42.9,12.1,31.2,15.4,31.2,15.4z"/>
<path fill="#F68236" d="M28.4,15.4c0,0-1.2-8.8-4-10.9s-6.7-0.9-7,2C16.8,12.1,28.4,15.4,28.4,15.4z"/>
<path fill="#F68236" d="M57,57.1H3v-26c0,0,7.7,5.8,26.7,6c19,0.2,27.3-6,27.3-6V57.1z"/>
<g>
	
		<rect x="1" y="17.1" fill="none" stroke="#2C2C2C" stroke-width="2" stroke-linecap="round" stroke-linejoin="round" stroke-miterlimit="10" width="58" height="10"/>
	
		<rect x="3" y="27.1" fill="none" stroke="#2C2C2C" stroke-width="2" stroke-linecap="round" stroke-linejoin="round" stroke-miterlimit="10" width="54" height="30"/>
	
		<line fill="none" stroke="#2C2C2C" stroke-width="2" stroke-linecap="round" stroke-linejoin="round" stroke-miterlimit="10" x1="21" y1="17.1" x2="21" y2="57.1"/>
	
		<line fill="none" stroke="#2C2C2C" stroke-width="2" stroke-linecap="round" stroke-linejoin="round" stroke-miterlimit="10" x1="39" y1="57.1" x2="39" y2="17.1"/>
	<path fill="none" stroke="#2C2C2C" stroke-width="2" stroke-linecap="round" stroke-linejoin="round" stroke-miterlimit="10" d="
		M44.2,11.8c-2.5,2.5-14.3,5.3-14.3,5.3s2.9-11.8,5.3-14.3c2.5-2.5,6.5-2.5,8.9,0C46.6,5.3,46.6,9.3,44.2,11.8z"/>
	<path fill="none" stroke="#2C2C2C" stroke-width="2" stroke-linecap="round" stroke-linejoin="round" stroke-miterlimit="10" d="
		M15.6,11.8c2.5,2.5,14.3,5.3,14.3,5.3S27,5.3,24.5,2.8c-2.5-2.5-6.5-2.5-8.9,0C13.2,5.3,13.2,9.3,15.6,11.8z"/>
</g>
</svg>
