<?xml version="1.0" encoding="utf-8"?>
<!-- Generator: Adobe Illustrator 18.0.0, SVG Export Plug-In . SVG Version: 6.00 Build 0)  -->
<!DOCTYPE svg PUBLIC "-//W3C//DTD SVG 1.1//EN" "http://www.w3.org/Graphics/SVG/1.1/DTD/svg11.dtd">
<svg version="1.1" id="Layer_1" xmlns="http://www.w3.org/2000/svg" xmlns:xlink="http://www.w3.org/1999/xlink" x="0px" y="0px"
	 viewBox="0 0 19.1 53.1" enable-background="new 0 0 19.1 53.1" xml:space="preserve">
<g>
	<g>
		<path fill="#F68236" d="M0,19.1h19.1v13.8c0,2.9-1.3,5.3-4.2,5.3v14.9H4.2V38.2c-2.9,0-4.2-2.4-4.2-5.3V19.1z"/>
		<circle fill="#F68236" cx="9.6" cy="7.4" r="7.4"/>
	</g>
</g>
</svg>
