<?xml version="1.0" encoding="utf-8"?>
<!-- Generator: Adobe Illustrator 18.0.0, SVG Export Plug-In . SVG Version: 6.00 Build 0)  -->
<!DOCTYPE svg PUBLIC "-//W3C//DTD SVG 1.1//EN" "http://www.w3.org/Graphics/SVG/1.1/DTD/svg11.dtd">
<svg version="1.1" id="Layer_1" xmlns="http://www.w3.org/2000/svg" xmlns:xlink="http://www.w3.org/1999/xlink" x="0px" y="0px"
	 viewBox="0 264.7 612.1 262.6" enable-background="new 0 264.7 612.1 262.6" xml:space="preserve">
<path fill="#E7A125" d="M223.7,302.8c-24.7-24.7-54.9-37.4-89.8-38.1C58.8,263.2-1.1,324.3,0,396.9c-0.6,35.3,14.6,67.6,36.4,90
	c25,25.8,55.8,39.6,91.9,40.3c76.6,1.3,133.3-59,134.5-128.5C263.3,361.5,250.3,329.1,223.7,302.8z M71.5,433c-20.2,0-40.2,0-60.5,0
	c0-25.6,0-51.2,0-76.9c7.7,0,15.3,0,23.5,0c0.6,9.7,0.2,19.4,0.2,28.9c0,9.5,0,19.2,0,28.9c12.3,0,24.5,0,36.8,0
	C71.5,420.5,71.5,426.6,71.5,433z M103.6,433.2c-7.1,0-14,0-21.1,0c0-18.5,0-37,0-55.7c6.9,0,14,0,21.1,0
	C103.6,396,103.6,414.5,103.6,433.2z M103.8,370.2c-6.9,0-14,0-21.3,0c0-4.9,0-9.5,0-14.2c7.5,0,14.2,0,21.3,0
	C103.8,360.9,103.8,365.6,103.8,370.2z M176.7,433.2c-7.3,0-14.2,0-21.5,0c0-0.9,0-1.7,0-2.4c0-9.9,0-19.8,0-29.5
	c0-1.5-0.4-2.8-0.7-4.3c-0.9-3.2-4.3-4.5-6.9-4.3c-3.9,0.4-6.3,2.1-7.5,6c-0.7,2.2-0.9,4.9-0.9,7.1c-0.2,9.2,0,18.1,0,27.5
	c-7.1,0-14,0-21.3,0c0-18.5,0-36.8,0-55.5c6.3,0,12.9,0,19.8,0c0,2.6,0,5.4,0,8c0.2,0.2,0.6,0.4,0.7,0.6c1.3-1.5,2.6-3.2,4.1-4.7
	c5.4-4.9,11.8-6,18.9-5.2c8,0.9,13.6,6.7,14.9,15.1c0.2,1.9,0.4,3.7,0.4,5.6c0,11.2,0,22.4,0,33.6
	C176.7,431.3,176.7,432,176.7,433.2z M212.3,419.2L212.3,419.2L212.3,419.2L212.3,419.2z M215.9,415.6L215.9,415.6L215.9,415.6
	L215.9,415.6z M231,433c-3.7-7.3-7.5-14.6-11.2-21.9c-2.6,2.8-5.2,5.4-8.2,8.4c0,3.9,0,8.8,0,13.6c-7.3,0-14.4,0-21.7,0
	c0-25.6,0-51.2,0-76.9c7.1,0,14.4,0,21.7,0c0,13.1,0,26.1,0,39.2c0.2,0,0.4,0.2,0.6,0.2c5.2-6.2,10.5-12.1,15.5-18.3
	c8.6,0,17.2,0,26.3,0l-14.6,14.2l-5.4,5.2l0,0l0,0l0,0c0,0,0,0-0.2,0c6.9,12,13.8,23.9,20.9,36C246.7,433,239,433,231,433z"/>
<path d="M272.3,357c0.9,0,1.7,0,2.6,0c12.7,0,25.6-0.2,38.3,0.2c4.1,0.2,8.4,1.1,12.5,2.4c6.5,2.4,10.1,7.7,11.8,14.4
	c1.5,6.7,1.1,13.1-1.9,19.2c-3.2,6.7-8.8,10.6-15.9,11.6c-6.3,0.9-13.1,0.7-19.6,0.9c-1.1,0-2.2,0-3.5,0c0,9.5,0,19,0,28.6
	c-8.2,0-16.1,0-24.3,0C272.3,408.7,272.3,383.1,272.3,357z M296.6,390.6c4.3-0.4,8.4-0.7,12.3-1.3c2.8-0.4,5.2-3.7,5.4-6.5
	c0.2-3.9-1.5-7.5-4.3-8.4c-4.3-1.5-8.8-0.7-13.4-0.9C296.6,379,296.6,384.4,296.6,390.6z"/>
<path d="M441.3,378.6c6.9,0,13.6,0,20.4,0c0,2.6,0,5.2,0,8.2c0.9-0.9,1.7-1.7,2.4-2.4c7.3-7.7,15.9-9.2,25.6-6
	c5.8,1.9,9,6.5,10.3,12.3c0.6,2.8,0.9,5.8,0.9,8.8c0.2,10.8,0,21.5,0,32.3c0,0.7,0,1.7,0,2.6c-7.5,0-14.6,0-22,0c0-0.7,0-1.7,0-2.4
	c0-10.1,0-20,0-30.1c0-2.6-0.6-5.4-3.2-6.9c-4.5-2.4-10.3-0.7-11.8,5.8c-0.4,1.7-0.6,3.5-0.6,5.2c0,8.6,0,17,0,25.6
	c0,0.7,0,1.7,0,2.6c-7.3,0-14.6,0-21.9,0C441.3,416,441.3,397.3,441.3,378.6z"/>
<path d="M373,377c7.3,0.2,14,1.3,20.2,5.2c6.7,4.3,10.6,10.6,12,18.7c1.3,8.4,0.4,16.4-5,23.5c-4.1,5.6-9.7,9.3-16.6,10.6
	c-8,1.7-16.2,1.9-24.3-1.3c-10.5-4.3-16.6-11.8-18.1-23.3c-0.7-5.6,0-11,2.2-16.2c2.8-6.7,7.8-11.2,14.4-14.4
	c1.7-0.7,3.5-1.5,5.4-1.9C366.2,377.5,369.6,377.3,373,377z M362.3,406.6c0.6,2.8,0.9,5.4,1.9,8c1.1,3.7,4.9,6.2,9,6.3
	c4.9,0.2,8-3,9.2-6.3c1.9-5.4,1.9-11,0-16.4c-2.2-6.5-10.8-8.4-15.9-3.5C363.2,398.1,362.7,402.3,362.3,406.6z"/>
<path d="M552.2,419c7.3-0.7,14.4-1.3,21.5-2.1c1.9,5.6,5.8,7.8,11.4,7.1c4.7-0.6,6-1.7,6.9-5.2c-0.7-3-3.2-3.7-5.8-4.3
	c-6.3-1.3-12.9-2.4-19-4.1c-11.2-2.8-16.1-15.5-9.5-24.7c3-4.5,7.7-6.9,12.9-7.5c6.2-0.7,12.5-1.1,18.7-0.9
	c6.2,0.2,12.1,1.7,16.4,6.9c1.9,2.4,3.4,5,5.2,8.2c-7.5,0.7-14.4,1.5-21.1,2.1c-1.9-5.4-6-5.8-10.5-5.4c-2.4,0.2-4.3,1.5-4.9,4.1
	c0.2,2.6,2.1,3.4,4.3,3.7c4.9,0.9,9.9,1.3,14.8,2.2c4.7,0.9,9.3,2.1,13.1,5.2c5,4.3,6.7,11.2,4.7,17.4c-2.8,7.8-9,11.8-16.8,13.1
	c-6,0.9-12.3,1.1-18.5,0.9c-4.5-0.2-9-1.5-13.3-3.2C556.9,430.4,553.7,425.3,552.2,419z"/>
<path d="M512.3,394.3c-2.6,0-5,0-7.5,0c0-5.2,0-10.5,0-15.7c2.4,0,4.9,0,7.3,0c0-3.5,0-6.9,0-10.3c7.3-3.7,14.4-7.5,22-11.4
	c0,7.5,0,14.4,0,21.5c3.9,0,7.7,0,11.6,0c0,5.2,0,10.5,0,15.9c-3.7,0-7.5,0-11.4,0c0,1.7,0,3,0,4.3c0,6,0,11.8,0,17.7
	c0,3.2,2.2,5,5.4,4.3c1.7-0.4,3.4-0.7,5.4-1.1c0.6,4.9,1.1,9.7,1.7,14.9c-1.7,0.4-3.5,0.7-5.4,1.1c-6.2,0.7-12.3,1.3-18.3-0.2
	c-5.6-1.5-9.3-5.2-9.9-11c-0.6-8.2-0.7-16.2-0.9-24.5C512.3,398.1,512.3,396.4,512.3,394.3z"/>
<path d="M433.1,378.6c0,18.7,0,37.2,0,55.8c-7.3,0-14.6,0-21.9,0c0-18.5,0-37.2,0-55.8C418.3,378.6,425.6,378.6,433.1,378.6z"/>
<path d="M432.9,371.7c-7.3,0-14.4,0-21.7,0c0-4.9,0-9.5,0-14.6c7.1,0,14.4,0,21.7,0C432.9,362,432.9,366.9,432.9,371.7z"/>
<path fill="#FFFFFF" d="M215.9,415.6v-0.2V415.6z"/>
<path fill="#FFFFFF" d="M212.3,419.2L212.3,419.2L212.3,419.2z"/>
<path d="M251.9,379.4C251.9,379.6,251.7,379.6,251.9,379.4C251.7,379.6,251.9,379.6,251.9,379.4L251.9,379.4z"/>
<path d="M251.9,379.6c0.2-0.2,0.4-0.4,0.4-0.4l0,0C252.3,379.2,252.1,379.4,251.9,379.6L251.9,379.6z"/>
<path d="M252.9,378.6C252.9,378.4,253.1,378.4,252.9,378.6C253.1,378.4,253.1,378.4,252.9,378.6L252.9,378.6z"/>
<g>
	<g>
		<path fill="#231F20" d="M172.4,395.1c-1.3-8.4-6.9-14.2-14.9-15.1c-7.1-0.7-13.4,0.2-18.9,5.2c-1.5,1.3-2.8,3-4.1,4.7
			c-0.2-0.2-0.6-0.4-0.7-0.6c0-2.8,0-5.4,0-8c-6.7,0-13.3,0-19.8,0c0,18.7,0,37.2,0,55.5c7.1,0,14.2,0,21.3,0c0-9.3,0-18.3,0-27.5
			c0-2.4,0.2-4.9,0.9-7.1c1.1-3.7,3.5-5.6,7.5-6c2.8-0.2,6.2,1.1,6.9,4.3c0.4,1.3,0.7,2.8,0.7,4.3c0,9.9,0,19.8,0,29.5
			c0,0.7,0,1.7,0,2.4c7.3,0,14.2,0,21.5,0c0-0.9,0-1.9,0-2.6c0-11.2,0-22.4,0-33.6C172.9,398.8,172.7,396.9,172.4,395.1z"/>
		<path fill="#231F20" d="M31.2,388.7c0-9.7,0.4-19.2-0.2-28.9c-8.2,0-15.9,0-23.5,0c0,25.8,0,51.5,0,76.9c20.4,0,40.5,0,60.5,0
			c0-6.3,0-12.5,0-19c-12.3,0-24.5,0-36.8,0C31.2,408,31.2,398.2,31.2,388.7z"/>
		<path fill="#231F20" d="M78.8,436.9c7.1,0,14,0,21.1,0c0-18.7,0-37.2,0-55.7c-7.1,0-14.2,0-21.1,0
			C78.8,399.9,78.8,418.4,78.8,436.9z"/>
		<path fill="#231F20" d="M78.8,374c7.3,0,14.2,0,21.3,0c0-4.7,0-9.3,0-14.2c-6.9,0-13.8,0-21.3,0C78.8,364.4,78.8,369.1,78.8,374z"
			/>
		<path fill="#231F20" d="M230.1,400.7l15.5-15.1l0.2-0.2l0,0l4.3-4.3c-9,0-17.6,0-26.3,0c-5.2,6-10.5,12.1-15.5,18.3
			c-0.2,0-0.4-0.2-0.6-0.2c0-13.1,0-26.1,0-39.2c-7.5,0-14.6,0-21.7,0c0,25.8,0,51.4,0,76.9c7.3,0,14.4,0,21.7,0c0-4.9,0-9.7,0-13.6
			c3-3.2,5.6-5.8,8.2-8.4c3.7,7.3,7.5,14.8,11.2,21.9c8,0,15.9,0,23.9,0C244.1,424.6,237.2,412.6,230.1,400.7z"/>
	</g>
	<g>
		<g>
			<path fill="#FFFFFF" d="M176.1,391.3c-1.3-8.4-6.9-14.2-14.9-15.1c-7.1-0.7-13.4,0.2-18.9,5.2c-1.5,1.3-2.8,3-4.1,4.7
				c-0.2-0.2-0.6-0.4-0.7-0.6c0-2.8,0-5.4,0-8c-6.7,0-13.3,0-19.8,0c0,18.7,0,37.2,0,55.5c7.1,0,14.2,0,21.3,0c0-9.3,0-18.3,0-27.5
				c0-2.4,0.2-4.9,0.9-7.1c1.1-3.7,3.5-5.6,7.5-6c2.8-0.2,6.2,1.1,6.9,4.3c0.4,1.3,0.7,2.8,0.7,4.3c0,9.9,0,19.8,0,29.5
				c0,0.7,0,1.7,0,2.4c7.3,0,14.2,0,21.5,0c0-0.9,0-1.9,0-2.6c0-11.2,0-22.4,0-33.6C176.7,395.1,176.5,393.2,176.1,391.3z"/>
			<path fill="#FFFFFF" d="M34.9,385c0-9.7,0.4-19.2-0.2-28.9c-8.2,0-15.9,0-23.5,0c0,25.8,0,51.5,0,76.9c20.4,0,40.5,0,60.5,0
				c0-6.3,0-12.5,0-19c-12.3,0-24.5,0-36.8,0C34.9,404.2,34.9,394.5,34.9,385z"/>
			<path fill="#FFFFFF" d="M82.5,433.2c7.1,0,14,0,21.1,0c0-18.7,0-37.2,0-55.7c-7.1,0-14.2,0-21.1,0
				C82.5,396.2,82.5,414.7,82.5,433.2z"/>
			<path fill="#FFFFFF" d="M82.5,370.2c7.3,0,14.2,0,21.3,0c0-4.7,0-9.3,0-14.2c-6.9,0-13.8,0-21.3,0
				C82.5,360.7,82.5,365.4,82.5,370.2z"/>
			<path fill="#FFFFFF" d="M233.8,396.9l15.5-15.1l0.2-0.2l0,0l4.3-4.3c-9,0-17.6,0-26.3,0c-5.2,6-10.5,12.1-15.5,18.3
				c-0.2,0-0.4-0.2-0.6-0.2c0-13.1,0-26.1,0-39.2c-7.5,0-14.6,0-21.7,0c0,25.8,0,51.4,0,76.9c7.3,0,14.4,0,21.7,0
				c0-4.9,0-9.7,0-13.6c3-3.2,5.6-5.8,8.2-8.4c3.7,7.3,7.5,14.8,11.2,21.9c8,0,15.9,0,23.9,0C247.8,420.8,240.9,408.9,233.8,396.9z"
				/>
		</g>
	</g>
</g>
</svg>
