<?xml version="1.0" encoding="utf-8"?>
<!-- Generator: Adobe Illustrator 18.0.0, SVG Export Plug-In . SVG Version: 6.00 Build 0)  -->
<!DOCTYPE svg PUBLIC "-//W3C//DTD SVG 1.1//EN" "http://www.w3.org/Graphics/SVG/1.1/DTD/svg11.dtd">
<svg version="1.1" id="Icons" xmlns="http://www.w3.org/2000/svg" xmlns:xlink="http://www.w3.org/1999/xlink" x="0px" y="0px"
	 viewBox="0 0 60 60" enable-background="new 0 0 60 60" xml:space="preserve">
<g>
	<path fill="#F68236" d="M36,40.2c0-0.1,0-0.1,0-0.2V0.5L20,11.1v44.4l14.5-9.7l2.2-1.3C36.3,43.2,36,42,36,41
		C36,40.7,36,40.5,36,40.2z"/>
	<path fill="#F68236" d="M0.5,0.1C0.2,0.3,0,0.6,0,1v42c0,0.3,0.2,0.6,0.4,0.8L18,55.5V11.1L1.6,0.2C1.2,0,0.9-0.1,0.5,0.1z"/>
	<path fill="#F68236" d="M49,28c2.6,0,5,0.8,7,2.1V13c0-0.3-0.2-0.6-0.4-0.8L38,0.5v33.6C40.3,30.4,44.4,28,49,28z"/>
	<path fill="#F68236" d="M49,30c-6.1,0-11,4.9-11,11c0,2,1.2,4.9,2.9,7.8c0.1,0.1,0.1,0.2,0.2,0.3c0.1,0.2,0.3,0.5,0.4,0.7
		c2.4,4.1,5.4,8,6.4,9.3c0.1,0.2,0.3,0.3,0.4,0.5c0.2,0.2,0.5,0.4,0.8,0.4s0.6-0.1,0.8-0.4c0.1-0.2,0.3-0.3,0.4-0.5
		c1.1-1.3,4-5.2,6.4-9.3c0.1-0.2,0.3-0.5,0.4-0.7c0.1-0.1,0.1-0.2,0.2-0.3c1.4-2.5,2.5-5,2.8-6.9c0,0,0-0.1,0-0.1
		c0-0.3,0.1-0.6,0.1-0.8C60,34.9,55.1,30,49,30z M49,46c-2.8,0-5-2.2-5-5c0-2.8,2.2-5,5-5s5,2.2,5,5C54,43.8,51.8,46,49,46z"/>
</g>
</svg>
